%YAML 1.1
%TAG !u! tag:unity3d.com,2011:
--- !u!114 &11400000
MonoBehaviour:
  m_ObjectHideFlags: 0
  m_CorrespondingSourceObject: {fileID: 0}
  m_PrefabInstance: {fileID: 0}
  m_PrefabAsset: {fileID: 0}
  m_GameObject: {fileID: 0}
  m_Enabled: 1
  m_EditorHideFlags: 0
  m_Script: {fileID: 11500000, guid: 2f8c6002ea9e4dc45b81f2ddd397ceb0, type: 3}
  m_Name: s2
  m_EditorClassIdentifier: 
  cardNumber: 1
  cardSuite: 2
  cardFace: {fileID: -16766654373697830, guid: 79ff284c4c00985469315c4dab75e807, type: 3}
